 _______________________________________________________________________________________________________________________________________________________
|_______________________________________________________________________________________________________________________________________________________|
|                                _______________________   _______________________                                         |\                        |  |
|                               |                       | |                       |                                        | \                       |  |
|                               |                       | |                       |                                        |  \                      |  |
|                               |                       | |                       |                                        |   \                     |  |
|           __ |                |                       | |                       |       _________                        |    \                    |  |
|        __|__|                 |                       | |                       |      |         |                       |     00000000000000000000|  |
|        __|                    |                       | |       _               |      |    ?    |                       |     00000000000000000000|  |
|                               |                       | |      / \           __||      |_________|                       |     00000000000000000000|  |
|                               |                       | |       |         __|___|                                        |     00000000000000000000|  |
|                __             |                       | |       |       _|______|                                        |     00000000000000000000|  |
|               |__|            |                       | |             _|________|                __                      |     00000000000000000000|  |
|              |                |                       | |           _|__________|               |__| __ __               |     00000000000000000000|  |
|                               |                       | |         _|____________|                __ |__|__|              |     00000000000000000000|  |
|                               |                       | |       _|______________|                __|                     |     00000000000000000000|  |
|                               |                       | |   _|__________________|                                        |     00000000000000000000|  |
|                               |                       | | _|____________________|                                        |     00000000000000000000|  |
|                               |_______________________| ||______________________|                                        |_________________________|  |
|_______________________________________________________________________________________________________________________________________________________|
|_______________________________________________________________________________________________________________________________________________________| 