																	

			Zbudis se pred stolpom z velikimi vrati na katerih pise Oros Olympus. Okoli tebe ni nicesar razen temacen
			gozd, ki raste v neskoncnost. Na sebi nimas nicesar razen treh napojev in svoj mec, ki ga imas zmeraj ob
			sebi. Nicesar se ne spomnes razen tega, da si nazadnje bil s prijatelji na proslavi zmage nad sovrazno
			drzavo s svojimi prijatelji s katerimi ste bili na bojni liniji.

									Ali vstopis?
									   ja/ne




								 	    )\
								            {_}
									   .-;-.
									  |'-=-'|
									  |     |
									  |     |
									  '.___.'